EESchema Schematic File Version 2  date Thu 15 Jan 2015 08:27:41 PM EET
LIBS:power
LIBS:device
LIBS:transistors
LIBS:conn
LIBS:linear
LIBS:regul
LIBS:74xx
LIBS:cmos4000
LIBS:adc-dac
LIBS:memory
LIBS:xilinx
LIBS:special
LIBS:microcontrollers
LIBS:dsp
LIBS:microchip
LIBS:analog_switches
LIBS:motorola
LIBS:texas
LIBS:intel
LIBS:audio
LIBS:interface
LIBS:digital-audio
LIBS:philips
LIBS:display
LIBS:cypress
LIBS:siliconi
LIBS:opto
LIBS:atmel
LIBS:contrib
LIBS:valves
LIBS:megax8_proto-cache
EELAYER 25  0
EELAYER END
$Descr A4 11700 8267
encoding utf-8
Sheet 1 1
Title ""
Date "15 jan 2015"
Rev ""
Comp ""
Comment1 ""
Comment2 ""
Comment3 ""
Comment4 ""
$EndDescr
Connection ~ 2900 5150
Wire Wire Line
	2100 5150 2900 5150
Connection ~ 2900 5300
Wire Wire Line
	1500 5300 2900 5300
Connection ~ 1500 3900
Wire Wire Line
	1500 4300 1500 3250
Wire Wire Line
	2900 6300 2900 2450
Wire Wire Line
	2900 2450 2000 2450
Connection ~ 2900 1950
Connection ~ 1150 2650
Connection ~ 600  3250
Connection ~ 1400 3250
Wire Wire Line
	1650 3250 1400 3250
Connection ~ 1500 3250
Wire Wire Line
	1500 3900 1100 3900
Wire Wire Line
	1950 4200 1950 2550
Wire Wire Line
	1200 4100 1100 4100
Wire Wire Line
	1200 4100 1200 4300
Wire Wire Line
	1200 4300 500  4300
Wire Wire Line
	500  4300 500  3250
Wire Wire Line
	500  3250 600  3250
Connection ~ 1000 3650
Wire Wire Line
	1000 3550 1000 3650
Connection ~ 1400 3650
Wire Wire Line
	600  3650 1650 3650
Connection ~ 2900 6300
Connection ~ 3300 5350
Wire Wire Line
	3300 5350 3300 5900
Wire Wire Line
	3300 5900 3500 5900
Connection ~ 4000 4550
Wire Wire Line
	4000 4550 4000 5250
Wire Wire Line
	4000 5250 3350 5250
Wire Wire Line
	3350 5250 3350 5800
Wire Wire Line
	3350 5800 3500 5800
Wire Wire Line
	6800 5450 6800 5350
Connection ~ 6500 6300
Wire Wire Line
	5700 5450 5700 5400
Wire Wire Line
	5700 5400 1900 5400
Wire Wire Line
	1900 5400 1900 3150
Wire Wire Line
	1900 3150 2000 3150
Wire Wire Line
	8100 4300 8000 4300
Wire Wire Line
	8000 4300 8000 5250
Wire Wire Line
	8000 5250 4850 5250
Wire Wire Line
	4850 5250 4850 4550
Wire Wire Line
	4850 4550 3900 4550
Wire Wire Line
	6500 4300 6500 4200
Wire Wire Line
	6500 4200 4000 4200
Wire Wire Line
	4000 4200 4000 4350
Wire Wire Line
	4000 4350 3900 4350
Wire Wire Line
	4900 4300 4900 4100
Wire Wire Line
	4900 4100 3900 4100
Wire Wire Line
	3900 4100 3900 4150
Wire Wire Line
	7300 3150 7300 3000
Wire Wire Line
	7300 3000 4650 3000
Wire Wire Line
	4650 3000 4650 3850
Wire Wire Line
	4650 3850 3900 3850
Wire Wire Line
	5700 3150 5700 3100
Wire Wire Line
	5700 3100 4750 3100
Wire Wire Line
	4750 3100 4750 3650
Wire Wire Line
	4750 3650 3900 3650
Wire Wire Line
	8100 2000 8100 1800
Wire Wire Line
	8100 1800 4300 1800
Wire Wire Line
	4300 1800 4300 3450
Wire Wire Line
	4300 3450 3900 3450
Wire Wire Line
	6500 2000 6500 1900
Wire Wire Line
	6500 1900 4400 1900
Wire Wire Line
	4400 1900 4400 3250
Wire Wire Line
	4400 3250 3900 3250
Wire Wire Line
	4900 2000 4500 2000
Wire Wire Line
	4500 2000 4500 2750
Wire Wire Line
	4500 2750 3900 2750
Wire Wire Line
	7300 850  7300 700 
Wire Wire Line
	7300 700  4600 700 
Wire Wire Line
	4600 700  4600 2550
Wire Wire Line
	4600 2550 3900 2550
Wire Wire Line
	5700 850  5700 800 
Wire Wire Line
	5700 800  4700 800 
Wire Wire Line
	4700 800  4700 2350
Wire Wire Line
	4700 2350 3900 2350
Connection ~ 5800 6350
Wire Wire Line
	5000 6350 5000 6250
Connection ~ 5800 5200
Wire Wire Line
	5000 5100 5000 5200
Wire Wire Line
	5000 5200 8800 5200
Connection ~ 7400 5200
Connection ~ 8800 4050
Wire Wire Line
	8200 5200 8200 5100
Wire Wire Line
	8800 5200 8800 1750
Connection ~ 6600 4050
Wire Wire Line
	5800 4050 5800 3950
Connection ~ 8200 4050
Wire Wire Line
	7400 4050 7400 3950
Connection ~ 5800 2900
Wire Wire Line
	5000 2800 5000 2900
Wire Wire Line
	5000 2900 8800 2900
Connection ~ 7400 2900
Wire Wire Line
	6600 2900 6600 2800
Connection ~ 8200 1750
Wire Wire Line
	8200 2900 8200 2800
Wire Wire Line
	8800 1750 4050 1750
Connection ~ 6600 1750
Wire Wire Line
	7400 1750 7400 1650
Connection ~ 5000 1750
Wire Wire Line
	5800 1750 5800 1650
Wire Wire Line
	1150 2650 1150 1950
Wire Wire Line
	1150 2650 2000 2650
Connection ~ 4900 6300
Wire Wire Line
	3800 6300 3800 5900
Wire Wire Line
	5700 6300 5700 6250
Wire Wire Line
	6500 6300 6500 5100
Connection ~ 6500 5150
Wire Wire Line
	5700 5150 5700 5100
Connection ~ 8100 5150
Wire Wire Line
	7300 5150 7300 5100
Connection ~ 5700 4000
Wire Wire Line
	4900 4000 4900 3950
Wire Wire Line
	4900 4000 8850 4000
Connection ~ 7300 4000
Wire Wire Line
	6500 4000 6500 3950
Connection ~ 8850 2850
Wire Wire Line
	8100 4000 8100 3950
Connection ~ 6500 2850
Wire Wire Line
	5700 2850 5700 2800
Connection ~ 8100 2850
Wire Wire Line
	7300 2850 7300 2800
Connection ~ 7300 1700
Wire Wire Line
	8100 1700 8100 1650
Wire Wire Line
	6500 1700 6500 1650
Connection ~ 5700 1700
Wire Wire Line
	6200 5850 6200 6250
Wire Wire Line
	6200 5850 6100 5850
Wire Wire Line
	6100 5850 6100 5450
Connection ~ 5900 6250
Wire Wire Line
	6000 5450 5950 5450
Wire Wire Line
	5950 5450 5950 6250
Wire Wire Line
	5950 6250 5850 6250
Connection ~ 6200 5450
Wire Wire Line
	6100 6250 6150 6250
Wire Wire Line
	6150 6250 6150 5450
Wire Wire Line
	6150 5450 6300 5450
Wire Wire Line
	6200 6250 6300 6250
Wire Wire Line
	5800 5450 5900 5450
Wire Wire Line
	5700 6250 5750 6250
Wire Wire Line
	5750 6250 5750 5900
Wire Wire Line
	5750 5900 5850 5900
Wire Wire Line
	5850 5900 5850 6250
Wire Wire Line
	5900 5450 5900 5850
Wire Wire Line
	5900 5850 6000 5850
Wire Wire Line
	6000 5850 6000 6250
Wire Wire Line
	5200 6250 5200 5850
Wire Wire Line
	5200 5850 5100 5850
Wire Wire Line
	5100 5850 5100 5450
Wire Wire Line
	5050 5900 5050 6250
Wire Wire Line
	5050 5900 4950 5900
Wire Wire Line
	4950 5900 4950 6250
Wire Wire Line
	4950 6250 4900 6250
Wire Wire Line
	5100 5450 5000 5450
Wire Wire Line
	5500 6250 5400 6250
Wire Wire Line
	5500 5450 5350 5450
Wire Wire Line
	5350 5450 5350 6250
Wire Wire Line
	5350 6250 5300 6250
Connection ~ 5400 5450
Wire Wire Line
	5050 6250 5150 6250
Wire Wire Line
	5150 6250 5150 5450
Wire Wire Line
	5150 5450 5200 5450
Connection ~ 5100 6250
Wire Wire Line
	5300 5450 5300 5850
Wire Wire Line
	5300 5850 5400 5850
Wire Wire Line
	5400 5850 5400 6250
Wire Wire Line
	5400 4700 5400 5100
Wire Wire Line
	5400 4700 5300 4700
Wire Wire Line
	5300 4700 5300 4300
Connection ~ 5100 5100
Wire Wire Line
	5200 4300 5150 4300
Wire Wire Line
	5150 4300 5150 5100
Wire Wire Line
	5150 5100 5050 5100
Connection ~ 5400 4300
Wire Wire Line
	5300 5100 5350 5100
Wire Wire Line
	5350 5100 5350 4300
Wire Wire Line
	5350 4300 5500 4300
Wire Wire Line
	5400 5100 5500 5100
Wire Wire Line
	5000 4300 5100 4300
Wire Wire Line
	4950 5100 4900 5100
Wire Wire Line
	4950 5100 4950 4750
Wire Wire Line
	4950 4750 5050 4750
Wire Wire Line
	5050 4750 5050 5100
Wire Wire Line
	5100 4300 5100 4700
Wire Wire Line
	5100 4700 5200 4700
Wire Wire Line
	5200 4700 5200 5100
Wire Wire Line
	6000 5100 6000 4700
Wire Wire Line
	6000 4700 5900 4700
Wire Wire Line
	5900 4700 5900 4300
Wire Wire Line
	5850 4750 5850 5100
Wire Wire Line
	5850 4750 5750 4750
Wire Wire Line
	5750 4750 5750 5100
Wire Wire Line
	5750 5100 5700 5100
Wire Wire Line
	5900 4300 5800 4300
Wire Wire Line
	6300 5100 6200 5100
Wire Wire Line
	6300 4300 6150 4300
Wire Wire Line
	6150 4300 6150 5100
Wire Wire Line
	6150 5100 6100 5100
Connection ~ 6200 4300
Wire Wire Line
	5850 5100 5950 5100
Wire Wire Line
	5950 5100 5950 4300
Wire Wire Line
	5950 4300 6000 4300
Connection ~ 5900 5100
Wire Wire Line
	6100 4300 6100 4700
Wire Wire Line
	6100 4700 6200 4700
Wire Wire Line
	6200 4700 6200 5100
Wire Wire Line
	7800 4700 7800 5100
Wire Wire Line
	7800 4700 7700 4700
Wire Wire Line
	7700 4700 7700 4300
Connection ~ 7500 5100
Wire Wire Line
	7600 4300 7550 4300
Wire Wire Line
	7550 4300 7550 5100
Wire Wire Line
	7550 5100 7450 5100
Connection ~ 7800 4300
Wire Wire Line
	7700 5100 7750 5100
Wire Wire Line
	7750 5100 7750 4300
Wire Wire Line
	7750 4300 7900 4300
Wire Wire Line
	7800 5100 7900 5100
Wire Wire Line
	7400 4300 7500 4300
Wire Wire Line
	7300 5100 7350 5100
Wire Wire Line
	7350 5100 7350 4750
Wire Wire Line
	7350 4750 7450 4750
Wire Wire Line
	7450 4750 7450 5100
Wire Wire Line
	7500 4300 7500 4700
Wire Wire Line
	7500 4700 7600 4700
Wire Wire Line
	7600 4700 7600 5100
Wire Wire Line
	6800 5100 6800 4700
Wire Wire Line
	6800 4700 6700 4700
Wire Wire Line
	6700 4700 6700 4300
Wire Wire Line
	6650 4750 6650 5100
Wire Wire Line
	6650 4750 6550 4750
Wire Wire Line
	6550 4750 6550 5100
Wire Wire Line
	6550 5100 6500 5100
Wire Wire Line
	6700 4300 6600 4300
Wire Wire Line
	7100 5100 7000 5100
Wire Wire Line
	7100 4300 6950 4300
Wire Wire Line
	6950 4300 6950 5100
Wire Wire Line
	6950 5100 6900 5100
Connection ~ 7000 4300
Wire Wire Line
	6650 5100 6750 5100
Wire Wire Line
	6750 5100 6750 4300
Wire Wire Line
	6750 4300 6800 4300
Connection ~ 6700 5100
Wire Wire Line
	6900 4300 6900 4700
Wire Wire Line
	6900 4700 7000 4700
Wire Wire Line
	7000 4700 7000 5100
Wire Wire Line
	8400 5100 8400 4700
Wire Wire Line
	8400 4700 8300 4700
Wire Wire Line
	8300 4700 8300 4300
Wire Wire Line
	8250 4750 8250 5100
Wire Wire Line
	8250 4750 8150 4750
Wire Wire Line
	8150 4750 8150 5100
Wire Wire Line
	8150 5100 8100 5100
Wire Wire Line
	8300 4300 8200 4300
Wire Wire Line
	8700 5100 8600 5100
Wire Wire Line
	8700 4300 8550 4300
Wire Wire Line
	8550 4300 8550 5100
Wire Wire Line
	8550 5100 8500 5100
Connection ~ 8600 4300
Wire Wire Line
	8250 5100 8350 5100
Wire Wire Line
	8350 5100 8350 4300
Wire Wire Line
	8350 4300 8400 4300
Connection ~ 8300 5100
Wire Wire Line
	8500 4300 8500 4700
Wire Wire Line
	8500 4700 8600 4700
Wire Wire Line
	8600 4700 8600 5100
Wire Wire Line
	8600 3550 8600 3950
Wire Wire Line
	8600 3550 8500 3550
Wire Wire Line
	8500 3550 8500 3150
Connection ~ 8300 3950
Wire Wire Line
	8400 3150 8350 3150
Wire Wire Line
	8350 3150 8350 3950
Wire Wire Line
	8350 3950 8250 3950
Connection ~ 8600 3150
Wire Wire Line
	8500 3950 8550 3950
Wire Wire Line
	8550 3950 8550 3150
Wire Wire Line
	8550 3150 8700 3150
Wire Wire Line
	8600 3950 8700 3950
Wire Wire Line
	8200 3150 8300 3150
Wire Wire Line
	8100 3950 8150 3950
Wire Wire Line
	8150 3950 8150 3600
Wire Wire Line
	8150 3600 8250 3600
Wire Wire Line
	8250 3600 8250 3950
Wire Wire Line
	8300 3150 8300 3550
Wire Wire Line
	8300 3550 8400 3550
Wire Wire Line
	8400 3550 8400 3950
Wire Wire Line
	7000 3550 7000 3950
Wire Wire Line
	7000 3550 6900 3550
Wire Wire Line
	6900 3550 6900 3150
Connection ~ 6700 3950
Wire Wire Line
	6800 3150 6750 3150
Wire Wire Line
	6750 3150 6750 3950
Wire Wire Line
	6750 3950 6650 3950
Connection ~ 7000 3150
Wire Wire Line
	6900 3950 6950 3950
Wire Wire Line
	6950 3950 6950 3150
Wire Wire Line
	6950 3150 7100 3150
Wire Wire Line
	7000 3950 7100 3950
Wire Wire Line
	6600 3150 6700 3150
Wire Wire Line
	6500 3950 6550 3950
Wire Wire Line
	6550 3950 6550 3600
Wire Wire Line
	6550 3600 6650 3600
Wire Wire Line
	6650 3600 6650 3950
Wire Wire Line
	6700 3150 6700 3550
Wire Wire Line
	6700 3550 6800 3550
Wire Wire Line
	6800 3550 6800 3950
Wire Wire Line
	7600 3950 7600 3550
Wire Wire Line
	7600 3550 7500 3550
Wire Wire Line
	7500 3550 7500 3150
Wire Wire Line
	7450 3600 7450 3950
Wire Wire Line
	7450 3600 7350 3600
Wire Wire Line
	7350 3600 7350 3950
Wire Wire Line
	7350 3950 7300 3950
Wire Wire Line
	7500 3150 7400 3150
Wire Wire Line
	7900 3950 7800 3950
Wire Wire Line
	7900 3150 7750 3150
Wire Wire Line
	7750 3150 7750 3950
Wire Wire Line
	7750 3950 7700 3950
Connection ~ 7800 3150
Wire Wire Line
	7450 3950 7550 3950
Wire Wire Line
	7550 3950 7550 3150
Wire Wire Line
	7550 3150 7600 3150
Connection ~ 7500 3950
Wire Wire Line
	7700 3150 7700 3550
Wire Wire Line
	7700 3550 7800 3550
Wire Wire Line
	7800 3550 7800 3950
Wire Wire Line
	6200 3550 6200 3950
Wire Wire Line
	6200 3550 6100 3550
Wire Wire Line
	6100 3550 6100 3150
Connection ~ 5900 3950
Wire Wire Line
	6000 3150 5950 3150
Wire Wire Line
	5950 3150 5950 3950
Wire Wire Line
	5950 3950 5850 3950
Connection ~ 6200 3150
Wire Wire Line
	6100 3950 6150 3950
Wire Wire Line
	6150 3950 6150 3150
Wire Wire Line
	6150 3150 6300 3150
Wire Wire Line
	6200 3950 6300 3950
Wire Wire Line
	5800 3150 5900 3150
Wire Wire Line
	5750 3950 5700 3950
Wire Wire Line
	5750 3950 5750 3600
Wire Wire Line
	5750 3600 5850 3600
Wire Wire Line
	5850 3600 5850 3950
Wire Wire Line
	5900 3150 5900 3550
Wire Wire Line
	5900 3550 6000 3550
Wire Wire Line
	6000 3550 6000 3950
Wire Wire Line
	5200 3950 5200 3550
Wire Wire Line
	5200 3550 5100 3550
Wire Wire Line
	5100 3550 5100 3150
Wire Wire Line
	5050 3600 5050 3950
Wire Wire Line
	5050 3600 4950 3600
Wire Wire Line
	4950 3600 4950 3950
Wire Wire Line
	4950 3950 4900 3950
Wire Wire Line
	5100 3150 5000 3150
Wire Wire Line
	5500 3950 5400 3950
Wire Wire Line
	5500 3150 5350 3150
Wire Wire Line
	5350 3150 5350 3950
Wire Wire Line
	5350 3950 5300 3950
Connection ~ 5400 3150
Wire Wire Line
	5050 3950 5150 3950
Wire Wire Line
	5150 3950 5150 3150
Wire Wire Line
	5150 3150 5200 3150
Connection ~ 5100 3950
Wire Wire Line
	5300 3150 5300 3550
Wire Wire Line
	5300 3550 5400 3550
Wire Wire Line
	5400 3550 5400 3950
Wire Wire Line
	5400 2400 5400 2800
Wire Wire Line
	5400 2400 5300 2400
Wire Wire Line
	5300 2400 5300 2000
Connection ~ 5100 2800
Wire Wire Line
	5200 2000 5150 2000
Wire Wire Line
	5150 2000 5150 2800
Wire Wire Line
	5150 2800 5050 2800
Connection ~ 5400 2000
Wire Wire Line
	5300 2800 5350 2800
Wire Wire Line
	5350 2800 5350 2000
Wire Wire Line
	5350 2000 5500 2000
Wire Wire Line
	5400 2800 5500 2800
Wire Wire Line
	5000 2000 5100 2000
Wire Wire Line
	4950 2800 4900 2800
Wire Wire Line
	4950 2800 4950 2450
Wire Wire Line
	4950 2450 5050 2450
Wire Wire Line
	5050 2450 5050 2800
Wire Wire Line
	5100 2000 5100 2400
Wire Wire Line
	5100 2400 5200 2400
Wire Wire Line
	5200 2400 5200 2800
Wire Wire Line
	6000 2800 6000 2400
Wire Wire Line
	6000 2400 5900 2400
Wire Wire Line
	5900 2400 5900 2000
Wire Wire Line
	5850 2450 5850 2800
Wire Wire Line
	5850 2450 5750 2450
Wire Wire Line
	5750 2450 5750 2800
Wire Wire Line
	5750 2800 5700 2800
Wire Wire Line
	5900 2000 5800 2000
Wire Wire Line
	6300 2800 6200 2800
Wire Wire Line
	6300 2000 6150 2000
Wire Wire Line
	6150 2000 6150 2800
Wire Wire Line
	6150 2800 6100 2800
Connection ~ 6200 2000
Wire Wire Line
	5850 2800 5950 2800
Wire Wire Line
	5950 2800 5950 2000
Wire Wire Line
	5950 2000 6000 2000
Connection ~ 5900 2800
Wire Wire Line
	6100 2000 6100 2400
Wire Wire Line
	6100 2400 6200 2400
Wire Wire Line
	6200 2400 6200 2800
Wire Wire Line
	7800 2400 7800 2800
Wire Wire Line
	7800 2400 7700 2400
Wire Wire Line
	7700 2400 7700 2000
Connection ~ 7500 2800
Wire Wire Line
	7600 2000 7550 2000
Wire Wire Line
	7550 2000 7550 2800
Wire Wire Line
	7550 2800 7450 2800
Connection ~ 7800 2000
Wire Wire Line
	7700 2800 7750 2800
Wire Wire Line
	7750 2800 7750 2000
Wire Wire Line
	7750 2000 7900 2000
Wire Wire Line
	7800 2800 7900 2800
Wire Wire Line
	7400 2000 7500 2000
Wire Wire Line
	7300 2800 7350 2800
Wire Wire Line
	7350 2800 7350 2450
Wire Wire Line
	7350 2450 7450 2450
Wire Wire Line
	7450 2450 7450 2800
Wire Wire Line
	7500 2000 7500 2400
Wire Wire Line
	7500 2400 7600 2400
Wire Wire Line
	7600 2400 7600 2800
Wire Wire Line
	6800 2800 6800 2400
Wire Wire Line
	6800 2400 6700 2400
Wire Wire Line
	6700 2400 6700 2000
Wire Wire Line
	6650 2450 6650 2800
Wire Wire Line
	6650 2450 6550 2450
Wire Wire Line
	6550 2450 6550 2800
Wire Wire Line
	6550 2800 6500 2800
Wire Wire Line
	6700 2000 6600 2000
Wire Wire Line
	7100 2800 7000 2800
Wire Wire Line
	7100 2000 6950 2000
Wire Wire Line
	6950 2000 6950 2800
Wire Wire Line
	6950 2800 6900 2800
Connection ~ 7000 2000
Wire Wire Line
	6650 2800 6750 2800
Wire Wire Line
	6750 2800 6750 2000
Wire Wire Line
	6750 2000 6800 2000
Connection ~ 6700 2800
Wire Wire Line
	6900 2000 6900 2400
Wire Wire Line
	6900 2400 7000 2400
Wire Wire Line
	7000 2400 7000 2800
Wire Wire Line
	8400 2800 8400 2400
Wire Wire Line
	8400 2400 8300 2400
Wire Wire Line
	8300 2400 8300 2000
Wire Wire Line
	8250 2450 8250 2800
Wire Wire Line
	8250 2450 8150 2450
Wire Wire Line
	8150 2450 8150 2800
Wire Wire Line
	8150 2800 8100 2800
Wire Wire Line
	8300 2000 8200 2000
Wire Wire Line
	8700 2800 8600 2800
Wire Wire Line
	8700 2000 8550 2000
Wire Wire Line
	8550 2000 8550 2800
Wire Wire Line
	8550 2800 8500 2800
Connection ~ 8600 2000
Wire Wire Line
	8250 2800 8350 2800
Wire Wire Line
	8350 2800 8350 2000
Wire Wire Line
	8350 2000 8400 2000
Connection ~ 8300 2800
Wire Wire Line
	8500 2000 8500 2400
Wire Wire Line
	8500 2400 8600 2400
Wire Wire Line
	8600 2400 8600 2800
Wire Wire Line
	8600 1250 8600 1650
Wire Wire Line
	8600 1250 8500 1250
Wire Wire Line
	8500 1250 8500 850 
Connection ~ 8300 1650
Wire Wire Line
	8400 850  8350 850 
Wire Wire Line
	8350 850  8350 1650
Wire Wire Line
	8350 1650 8250 1650
Connection ~ 8600 850 
Wire Wire Line
	8500 1650 8550 1650
Wire Wire Line
	8550 1650 8550 850 
Wire Wire Line
	8550 850  8700 850 
Wire Wire Line
	8600 1650 8700 1650
Wire Wire Line
	8200 850  8300 850 
Wire Wire Line
	8100 1650 8150 1650
Wire Wire Line
	8150 1650 8150 1300
Wire Wire Line
	8150 1300 8250 1300
Wire Wire Line
	8250 1300 8250 1650
Wire Wire Line
	8300 850  8300 1250
Wire Wire Line
	8300 1250 8400 1250
Wire Wire Line
	8400 1250 8400 1650
Wire Wire Line
	7000 1250 7000 1650
Wire Wire Line
	7000 1250 6900 1250
Wire Wire Line
	6900 1250 6900 850 
Connection ~ 6700 1650
Wire Wire Line
	6800 850  6750 850 
Wire Wire Line
	6750 850  6750 1650
Wire Wire Line
	6750 1650 6650 1650
Connection ~ 7000 850 
Wire Wire Line
	6900 1650 6950 1650
Wire Wire Line
	6950 1650 6950 850 
Wire Wire Line
	6950 850  7100 850 
Wire Wire Line
	7000 1650 7100 1650
Wire Wire Line
	6600 850  6700 850 
Wire Wire Line
	6500 1650 6550 1650
Wire Wire Line
	6550 1650 6550 1300
Wire Wire Line
	6550 1300 6650 1300
Wire Wire Line
	6650 1300 6650 1650
Wire Wire Line
	6700 850  6700 1250
Wire Wire Line
	6700 1250 6800 1250
Wire Wire Line
	6800 1250 6800 1650
Wire Wire Line
	7600 1650 7600 1250
Wire Wire Line
	7600 1250 7500 1250
Wire Wire Line
	7500 1250 7500 850 
Wire Wire Line
	7450 1300 7450 1650
Wire Wire Line
	7450 1300 7350 1300
Wire Wire Line
	7350 1300 7350 1650
Wire Wire Line
	7350 1650 7300 1650
Wire Wire Line
	7500 850  7400 850 
Wire Wire Line
	7900 1650 7800 1650
Wire Wire Line
	7900 850  7750 850 
Wire Wire Line
	7750 850  7750 1650
Wire Wire Line
	7750 1650 7700 1650
Connection ~ 7800 850 
Wire Wire Line
	7450 1650 7550 1650
Wire Wire Line
	7550 1650 7550 850 
Wire Wire Line
	7550 850  7600 850 
Connection ~ 7500 1650
Wire Wire Line
	7700 850  7700 1250
Wire Wire Line
	7700 1250 7800 1250
Wire Wire Line
	7800 1250 7800 1650
Wire Wire Line
	6200 1250 6200 1650
Wire Wire Line
	6200 1250 6100 1250
Wire Wire Line
	6100 1250 6100 850 
Connection ~ 5900 1650
Wire Wire Line
	6000 850  5950 850 
Wire Wire Line
	5950 850  5950 1650
Wire Wire Line
	5950 1650 5850 1650
Connection ~ 6200 850 
Wire Wire Line
	6100 1650 6150 1650
Wire Wire Line
	6150 1650 6150 850 
Wire Wire Line
	6150 850  6300 850 
Wire Wire Line
	6200 1650 6300 1650
Wire Wire Line
	5800 850  5900 850 
Wire Wire Line
	5750 1650 5700 1650
Wire Wire Line
	5750 1650 5750 1300
Wire Wire Line
	5750 1300 5850 1300
Wire Wire Line
	5850 1300 5850 1650
Wire Wire Line
	5900 850  5900 1250
Wire Wire Line
	5900 1250 6000 1250
Wire Wire Line
	6000 1250 6000 1650
Wire Wire Line
	5200 1650 5200 1250
Wire Wire Line
	5200 1250 5100 1250
Wire Wire Line
	5100 1250 5100 850 
Wire Wire Line
	5050 1300 5050 1650
Wire Wire Line
	5050 1300 4950 1300
Wire Wire Line
	4950 1300 4950 1650
Wire Wire Line
	4950 1650 4900 1650
Wire Wire Line
	5100 850  5000 850 
Wire Wire Line
	5500 1650 5400 1650
Wire Wire Line
	5500 850  5350 850 
Wire Wire Line
	5350 850  5350 1650
Wire Wire Line
	5350 1650 5300 1650
Connection ~ 5400 850 
Wire Wire Line
	5050 1650 5150 1650
Wire Wire Line
	5150 1650 5150 850 
Wire Wire Line
	5150 850  5200 850 
Connection ~ 5100 1650
Wire Wire Line
	5300 850  5300 1250
Wire Wire Line
	5300 1250 5400 1250
Wire Wire Line
	5400 1250 5400 1650
Wire Wire Line
	4900 1650 4900 1700
Wire Wire Line
	5700 1650 5700 1700
Wire Wire Line
	7300 1650 7300 1700
Connection ~ 6500 1700
Wire Wire Line
	4900 1700 8850 1700
Wire Wire Line
	8100 2800 8100 2850
Connection ~ 8100 1700
Wire Wire Line
	6500 2800 6500 2850
Connection ~ 7300 2850
Wire Wire Line
	8850 2850 4900 2850
Wire Wire Line
	4900 2850 4900 2800
Connection ~ 5700 2850
Connection ~ 8100 4000
Wire Wire Line
	7300 3950 7300 4000
Wire Wire Line
	5700 3950 5700 4000
Connection ~ 6500 4000
Wire Wire Line
	8850 1700 8850 5150
Wire Wire Line
	8100 5100 8100 5150
Connection ~ 8850 4000
Connection ~ 7300 5150
Wire Wire Line
	8850 5150 4900 5150
Wire Wire Line
	4900 5150 4900 5100
Connection ~ 5700 5150
Wire Wire Line
	4900 6250 4900 6300
Connection ~ 5700 6300
Connection ~ 3800 6300
Wire Wire Line
	1150 1950 4050 1950
Wire Wire Line
	4050 1950 4050 1750
Wire Wire Line
	5000 1750 5000 1650
Connection ~ 2900 1950
Wire Wire Line
	6600 1750 6600 1650
Connection ~ 5800 1750
Wire Wire Line
	8200 1750 8200 1650
Connection ~ 7400 1750
Wire Wire Line
	7400 2900 7400 2800
Connection ~ 8200 2900
Wire Wire Line
	5800 2900 5800 2800
Connection ~ 6600 2900
Wire Wire Line
	8200 4050 8200 3950
Connection ~ 8800 2900
Wire Wire Line
	6600 4050 6600 3950
Connection ~ 7400 4050
Wire Wire Line
	8800 4050 5000 4050
Wire Wire Line
	5000 4050 5000 3950
Connection ~ 5800 4050
Wire Wire Line
	7400 5200 7400 5100
Connection ~ 8200 5200
Wire Wire Line
	5800 5200 5800 5100
Connection ~ 6600 5200
Wire Wire Line
	5800 6350 5800 6250
Wire Wire Line
	3900 2250 4750 2250
Wire Wire Line
	4750 2250 4750 850 
Wire Wire Line
	4750 850  4900 850 
Wire Wire Line
	3900 2450 4650 2450
Wire Wire Line
	4650 2450 4650 750 
Wire Wire Line
	4650 750  6500 750 
Wire Wire Line
	6500 750  6500 850 
Wire Wire Line
	3900 2650 4550 2650
Wire Wire Line
	4550 2650 4550 650 
Wire Wire Line
	4550 650  8100 650 
Wire Wire Line
	8100 650  8100 850 
Wire Wire Line
	3900 3150 4450 3150
Wire Wire Line
	4450 3150 4450 1950
Wire Wire Line
	4450 1950 5700 1950
Wire Wire Line
	5700 1950 5700 2000
Wire Wire Line
	3900 3350 4350 3350
Wire Wire Line
	4350 3350 4350 1850
Wire Wire Line
	4350 1850 7300 1850
Wire Wire Line
	7300 1850 7300 2000
Wire Wire Line
	3900 3550 4800 3550
Wire Wire Line
	4800 3550 4800 3150
Wire Wire Line
	4800 3150 4900 3150
Wire Wire Line
	3900 3750 4700 3750
Wire Wire Line
	4700 3750 4700 3050
Wire Wire Line
	4700 3050 6500 3050
Wire Wire Line
	6500 3050 6500 3150
Wire Wire Line
	3900 4050 4600 4050
Wire Wire Line
	4600 4050 4600 2950
Wire Wire Line
	4600 2950 8100 2950
Wire Wire Line
	8100 2950 8100 3150
Wire Wire Line
	3900 4250 3950 4250
Wire Wire Line
	3950 4250 3950 4150
Wire Wire Line
	3950 4150 5700 4150
Wire Wire Line
	5700 4150 5700 4300
Wire Wire Line
	4050 4450 3900 4450
Wire Wire Line
	7300 4250 4050 4250
Wire Wire Line
	7300 4250 7300 4300
Wire Wire Line
	2000 2950 1850 2950
Wire Wire Line
	1850 2950 1850 5450
Wire Wire Line
	1850 5450 4900 5450
Wire Wire Line
	1950 2550 2000 2550
Wire Wire Line
	6900 6250 6900 6350
Wire Wire Line
	7100 6250 7100 5850
Wire Wire Line
	7100 5850 7000 5850
Wire Wire Line
	7000 5850 7000 5450
Wire Wire Line
	6950 5900 6950 6250
Wire Wire Line
	6950 5900 6850 5900
Wire Wire Line
	6850 5900 6850 6250
Wire Wire Line
	6850 6250 6800 6250
Wire Wire Line
	7000 5450 6900 5450
Wire Wire Line
	7400 6250 7300 6250
Wire Wire Line
	7400 5450 7250 5450
Wire Wire Line
	7250 5450 7250 6250
Wire Wire Line
	7250 6250 7200 6250
Connection ~ 7300 5450
Wire Wire Line
	6950 6250 7050 6250
Wire Wire Line
	7050 6250 7050 5450
Wire Wire Line
	7050 5450 7100 5450
Connection ~ 7000 6250
Wire Wire Line
	7200 5450 7200 5850
Wire Wire Line
	7200 5850 7300 5850
Wire Wire Line
	7300 5850 7300 6250
Wire Wire Line
	6800 6250 6800 6300
Wire Wire Line
	6600 6350 6600 5100
Connection ~ 6600 6350
Wire Wire Line
	6800 5350 1800 5350
Wire Wire Line
	1800 5350 1800 2250
Wire Wire Line
	1800 2250 2000 2250
Wire Wire Line
	3500 5700 3400 5700
Wire Wire Line
	3400 5700 3400 5300
Wire Wire Line
	3400 5300 4050 5300
Wire Wire Line
	4050 5300 4050 4250
Connection ~ 4050 4450
Wire Wire Line
	3800 5800 4100 5800
Wire Wire Line
	4100 5800 4100 4200
Connection ~ 4100 4200
Wire Wire Line
	3800 5700 4150 5700
Wire Wire Line
	4150 5700 4150 6350
Wire Wire Line
	4150 6350 6900 6350
Connection ~ 5000 6350
Wire Wire Line
	1650 3650 1650 6300
Wire Wire Line
	1650 6300 6800 6300
Wire Wire Line
	1400 3250 1400 2650
Wire Wire Line
	1400 2650 1450 2650
Connection ~ 1450 2650
Wire Wire Line
	1100 3650 1100 3800
Connection ~ 1100 3650
Wire Wire Line
	1100 4100 1100 4000
Wire Wire Line
	2250 6600 2250 6300
Wire Wire Line
	2250 6300 2300 6300
Connection ~ 2300 6300
Connection ~ 2000 2450
Connection ~ 2000 2650
Connection ~ 2900 4850
Wire Wire Line
	1450 1900 1450 1950
Connection ~ 1450 1950
Wire Wire Line
	2500 6450 2500 6300
Connection ~ 2500 6300
Connection ~ 2500 6450
Wire Wire Line
	1500 4800 1500 4900
Wire Wire Line
	2100 4750 2100 4200
Wire Wire Line
	2100 4200 1100 4200
Connection ~ 1950 4200
$Comp
L C C4
U 1 1 54B80079
P 2100 4950
F 0 "C4" H 2150 5050 50  0000 L CNN
F 1 "C" H 2150 4850 50  0000 L CNN
	1    2100 4950
	1    0    0    -1  
$EndComp
$Comp
L LED D1
U 1 1 54B026A1
P 1500 5100
F 0 "D1" H 1500 5200 50  0000 C CNN
F 1 "LED" H 1500 5000 50  0000 C CNN
	1    1500 5100
	0    1    1    0   
$EndComp
$Comp
L R R1
U 1 1 54B0265E
P 1500 4550
F 0 "R1" V 1580 4550 50  0000 C CNN
F 1 "500" V 1500 4550 50  0000 C CNN
	1    1500 4550
	-1   0    0    1   
$EndComp
$Comp
L PWR_FLAG #FLG01
U 1 1 54AEE379
P 2500 6450
F 0 "#FLG01" H 2500 6720 30  0001 C CNN
F 1 "PWR_FLAG" H 2500 6680 30  0000 C CNN
	1    2500 6450
	-1   0    0    1   
$EndComp
$Comp
L VCC #PWR02
U 1 1 54AEE303
P 1450 1900
F 0 "#PWR02" H 1450 2000 30  0001 C CNN
F 1 "VCC" H 1450 2000 30  0000 C CNN
	1    1450 1900
	1    0    0    -1  
$EndComp
$Comp
L GND #PWR03
U 1 1 54AEE031
P 2250 6600
F 0 "#PWR03" H 2250 6600 30  0001 C CNN
F 1 "GND" H 2250 6530 30  0001 C CNN
	1    2250 6600
	1    0    0    -1  
$EndComp
$Comp
L CONN_5 P1
U 1 1 54AEDEB1
P 700 4000
F 0 "P1" V 650 4000 50  0000 C CNN
F 1 "CONN_5" V 750 4000 50  0000 C CNN
	1    700  4000
	-1   0    0    1   
$EndComp
$Comp
L C C3
U 1 1 54AEDE05
P 1650 3450
F 0 "C3" H 1700 3550 50  0000 L CNN
F 1 "C" H 1700 3350 50  0000 L CNN
	1    1650 3450
	1    0    0    -1  
$EndComp
$Comp
L CP1 C2
U 1 1 54AEDDB8
P 1400 3450
F 0 "C2" H 1450 3550 50  0000 L CNN
F 1 "CP1" H 1450 3350 50  0000 L CNN
	1    1400 3450
	1    0    0    -1  
$EndComp
$Comp
L CP1 C1
U 1 1 54AEDDA8
P 600 3450
F 0 "C1" H 650 3550 50  0000 L CNN
F 1 "CP1" H 650 3350 50  0000 L CNN
	1    600  3450
	1    0    0    -1  
$EndComp
$Comp
L LM7805 U1
U 1 1 54AEDD6E
P 1000 3300
F 0 "U1" H 1150 3104 60  0000 C CNN
F 1 "LM7805" H 1000 3500 60  0000 C CNN
	1    1000 3300
	1    0    0    -1  
$EndComp
$Comp
L CONN_7X2 P16
U 1 1 54AEDBA3
P 7100 5850
F 0 "P16" H 7100 6250 60  0000 C CNN
F 1 "CONN_7X2" V 7100 5850 60  0000 C CNN
	1    7100 5850
	0    -1   -1   0   
$EndComp
$Comp
L CONN_7X2 P11
U 1 1 54AACAC9
P 6000 5850
F 0 "P11" H 6000 6250 60  0000 C CNN
F 1 "CONN_7X2" V 6000 5850 60  0000 C CNN
	1    6000 5850
	0    -1   -1   0   
$EndComp
$Comp
L CONN_7X2 P6
U 1 1 54AACAC8
P 5200 5850
F 0 "P6" H 5200 6250 60  0000 C CNN
F 1 "CONN_7X2" V 5200 5850 60  0000 C CNN
	1    5200 5850
	0    -1   -1   0   
$EndComp
$Comp
L CONN_7X2 P5
U 1 1 54AACA1C
P 5200 4700
F 0 "P5" H 5200 5100 60  0000 C CNN
F 1 "CONN_7X2" V 5200 4700 60  0000 C CNN
	1    5200 4700
	0    -1   -1   0   
$EndComp
$Comp
L CONN_7X2 P10
U 1 1 54AACA1B
P 6000 4700
F 0 "P10" H 6000 5100 60  0000 C CNN
F 1 "CONN_7X2" V 6000 4700 60  0000 C CNN
	1    6000 4700
	0    -1   -1   0   
$EndComp
$Comp
L CONN_7X2 P20
U 1 1 54AACA1A
P 7600 4700
F 0 "P20" H 7600 5100 60  0000 C CNN
F 1 "CONN_7X2" V 7600 4700 60  0000 C CNN
	1    7600 4700
	0    -1   -1   0   
$EndComp
$Comp
L CONN_7X2 P15
U 1 1 54AACA19
P 6800 4700
F 0 "P15" H 6800 5100 60  0000 C CNN
F 1 "CONN_7X2" V 6800 4700 60  0000 C CNN
	1    6800 4700
	0    -1   -1   0   
$EndComp
$Comp
L CONN_7X2 P24
U 1 1 54AACA18
P 8400 4700
F 0 "P24" H 8400 5100 60  0000 C CNN
F 1 "CONN_7X2" V 8400 4700 60  0000 C CNN
	1    8400 4700
	0    -1   -1   0   
$EndComp
$Comp
L CONN_7X2 P23
U 1 1 54AACA01
P 8400 3550
F 0 "P23" H 8400 3950 60  0000 C CNN
F 1 "CONN_7X2" V 8400 3550 60  0000 C CNN
	1    8400 3550
	0    -1   -1   0   
$EndComp
$Comp
L CONN_7X2 P14
U 1 1 54AACA00
P 6800 3550
F 0 "P14" H 6800 3950 60  0000 C CNN
F 1 "CONN_7X2" V 6800 3550 60  0000 C CNN
	1    6800 3550
	0    -1   -1   0   
$EndComp
$Comp
L CONN_7X2 P19
U 1 1 54AAC9FF
P 7600 3550
F 0 "P19" H 7600 3950 60  0000 C CNN
F 1 "CONN_7X2" V 7600 3550 60  0000 C CNN
	1    7600 3550
	0    -1   -1   0   
$EndComp
$Comp
L CONN_7X2 P9
U 1 1 54AAC9FE
P 6000 3550
F 0 "P9" H 6000 3950 60  0000 C CNN
F 1 "CONN_7X2" V 6000 3550 60  0000 C CNN
	1    6000 3550
	0    -1   -1   0   
$EndComp
$Comp
L CONN_7X2 P4
U 1 1 54AAC9FD
P 5200 3550
F 0 "P4" H 5200 3950 60  0000 C CNN
F 1 "CONN_7X2" V 5200 3550 60  0000 C CNN
	1    5200 3550
	0    -1   -1   0   
$EndComp
$Comp
L CONN_7X2 P3
U 1 1 54AAC9E1
P 5200 2400
F 0 "P3" H 5200 2800 60  0000 C CNN
F 1 "CONN_7X2" V 5200 2400 60  0000 C CNN
	1    5200 2400
	0    -1   -1   0   
$EndComp
$Comp
L CONN_7X2 P8
U 1 1 54AAC9E0
P 6000 2400
F 0 "P8" H 6000 2800 60  0000 C CNN
F 1 "CONN_7X2" V 6000 2400 60  0000 C CNN
	1    6000 2400
	0    -1   -1   0   
$EndComp
$Comp
L CONN_7X2 P18
U 1 1 54AAC9DF
P 7600 2400
F 0 "P18" H 7600 2800 60  0000 C CNN
F 1 "CONN_7X2" V 7600 2400 60  0000 C CNN
	1    7600 2400
	0    -1   -1   0   
$EndComp
$Comp
L CONN_7X2 P13
U 1 1 54AAC9DE
P 6800 2400
F 0 "P13" H 6800 2800 60  0000 C CNN
F 1 "CONN_7X2" V 6800 2400 60  0000 C CNN
	1    6800 2400
	0    -1   -1   0   
$EndComp
$Comp
L CONN_7X2 P22
U 1 1 54AAC9DD
P 8400 2400
F 0 "P22" H 8400 2800 60  0000 C CNN
F 1 "CONN_7X2" V 8400 2400 60  0000 C CNN
	1    8400 2400
	0    -1   -1   0   
$EndComp
$Comp
L CONN_7X2 P21
U 1 1 54AAC9A1
P 8400 1250
F 0 "P21" H 8400 1650 60  0000 C CNN
F 1 "CONN_7X2" V 8400 1250 60  0000 C CNN
	1    8400 1250
	0    -1   -1   0   
$EndComp
$Comp
L CONN_7X2 P12
U 1 1 54AAC98C
P 6800 1250
F 0 "P12" H 6800 1650 60  0000 C CNN
F 1 "CONN_7X2" V 6800 1250 60  0000 C CNN
	1    6800 1250
	0    -1   -1   0   
$EndComp
$Comp
L CONN_7X2 P17
U 1 1 54AAC98B
P 7600 1250
F 0 "P17" H 7600 1650 60  0000 C CNN
F 1 "CONN_7X2" V 7600 1250 60  0000 C CNN
	1    7600 1250
	0    -1   -1   0   
$EndComp
$Comp
L CONN_7X2 P7
U 1 1 54AAC974
P 6000 1250
F 0 "P7" H 6000 1650 60  0000 C CNN
F 1 "CONN_7X2" V 6000 1250 60  0000 C CNN
	1    6000 1250
	0    -1   -1   0   
$EndComp
$Comp
L CONN_7X2 P2
U 1 1 54AABA70
P 5200 1250
F 0 "P2" H 5200 1650 60  0000 C CNN
F 1 "CONN_7X2" V 5200 1250 60  0000 C CNN
	1    5200 1250
	0    -1   -1   0   
$EndComp
$Comp
L AVR-ISP-6 J1
U 1 1 54AABA3D
P 3650 5800
F 0 "J1" H 3500 6050 50  0000 C CNN
F 1 "AVR-ISP-6" H 3400 5525 50  0000 L BNN
F 2 "AVR-ISP-6" V 3150 5800 50  0001 C CNN
	1    3650 5800
	1    0    0    -1  
$EndComp
$Comp
L ATMEGA8-P IC1
U 1 1 54AABA03
P 2900 3350
F 0 "IC1" H 2200 4600 50  0000 L BNN
F 1 "ATMEGA8-P" H 3150 1950 50  0000 L BNN
F 2 "DIL28" H 3400 1875 50  0001 C CNN
	1    2900 3350
	1    0    0    -1  
$EndComp
$EndSCHEMATC
